/* XPM */
static char * close_active_xpm[] = {
"20 30 34 1",
" 	c None",
".	c #3F51B5",
"+	c #5C50AE",
"@	c #AB4C89",
"#	c #CE4864",
"$	c #DD4749",
"%	c #CE4965",
"&	c #AC4C89",
"*	c #914D9A",
"=	c #DE484B",
"-	c #EE514A",
";	c #F95A52",
">	c #FE5E56",
",	c #EE5149",
"'	c #914E9B",
")	c #E44942",
"!	c #F95A53",
"~	c #FF5F57",
"{	c #DD484C",
"]	c #5E50AF",
"^	c #EE5049",
"/	c #D04863",
"(	c #F85952",
"_	c #DD474A",
":	c #DC474B",
"<	c #FD5E55",
"[	c #DC474C",
"}	c #AB4B8A",
"|	c #DC474E",
"1	c #5C50AF",
"2	c #8F4E9B",
"3	c #DD474E",
"4	c #F85A52",
"5	c #CE4865",
"....................",
"....................",
"....................",
"....................",
"....................",
"....................",
"....................",
"....................",
"......+@#$$%&+......",
".....*=-;>>;,='.....",
"....*)!~~~~~~!)'....",
"...+=!~~~~~~~~!{]...",
"...@-~~~~~~~~~~^&...",
".../;~~~~~~~~~~(%...",
"..._>~~~~~~~~~~>:...",
"...:>~~~~~~~~~~<[...",
"...#;~~~~~~~~~~(%...",
"...&,~~~~~~~~~~^}...",
"...+=!~~~~~~~~!|1...",
"....')!~~~~~~!)2....",
".....'3^(>>4^|2.....",
"......]&5__5}1......",
"....................",
"....................",
"....................",
"....................",
"....................",
"....................",
"....................",
"...................."};
