/* XPM */
static char * maximize_active_xpm[] = {
"20 30 38 1",
" 	c None",
".	c #3F51B5",
"+	c #3E5EAE",
"@	c #388A85",
"#	c #339F5C",
"$	c #31A83B",
"%	c #339F5D",
"&	c #388986",
"*	c #3A7999",
"=	c #31AA3E",
"-	c #2CB835",
";	c #29C33B",
">	c #28C73F",
",	c #2CB834",
"'	c #3B7899",
")	c #2FAE30",
"!	c #2AC43C",
"~	c #28C940",
"{	c #29C33C",
"]	c #31AA3F",
"^	c #3E5DAF",
"/	c #2DB834",
"(	c #378886",
"_	c #339E5B",
":	c #2AC23B",
"<	c #2AC33C",
"[	c #31A83C",
"}	c #28C83F",
"|	c #31A83E",
"1	c #29C73E",
"2	c #31A83F",
"3	c #388987",
"4	c #31A840",
"5	c #3E5BAF",
"6	c #3A789A",
"7	c #31A93F",
"8	c #2AC23C",
"9	c #349D5E",
"....................",
"....................",
"....................",
"....................",
"....................",
"....................",
"....................",
"....................",
"......+@#$$%&+......",
".....*=-;>>;,='.....",
"....*)!~~~~~~{)'....",
"...+=!~~~~~~~~{]^...",
"...@-~~~~~~~~~~/(...",
"..._:~~~~~~~~~~<%...",
"...[}~~~~~~~~~~}|...",
"...|}~~~~~~~~~~12...",
"...#:~~~~~~~~~~<%...",
"...&,~~~~~~~~~~/3...",
"...+={~~~~~~~~{45...",
"....'){~~~~~~{)6....",
".....'7/<}}8/46.....",
"......^(9[[935......",
"....................",
"....................",
"....................",
"....................",
"....................",
"....................",
"....................",
"...................."};
