/* XPM */
static char * hide_inactive_xpm[] = {
"20 30 28 1",
" 	c None",
".	c #6A5ACD",
"+	c #786BCD",
"@	c #AAA6CF",
"#	c #C3C2D0",
"$	c #CECED1",
"%	c #C3C1D0",
"&	c #A8A5CF",
"*	c #9791CF",
"=	c #CECED2",
"-	c #D6D6D6",
";	c #DADADA",
">	c #DCDCDC",
",	c #9690CE",
"'	c #D2D2D2",
")	c #CFCFD3",
"!	c #776ACD",
"~	c #D5D5D5",
"{	c #A9A5D0",
"]	c #C2C1CF",
"^	c #D9D9D9",
"/	c #CECDD1",
"(	c #CDCDD1",
"_	c #DBDBDB",
":	c #CDCCD1",
"<	c #7669CD",
"[	c #958ECE",
"}	c #C2C1D0",
"....................",
"....................",
"....................",
"....................",
"....................",
"....................",
"....................",
"....................",
"......+@#$$%&+......",
".....*=-;>>;-=,.....",
"....*';>>>>>>;',....",
"...+=;>>>>>>>>;)!...",
"...@->>>>>>>>>>~{...",
"...]^>>>>>>>>>>;%...",
".../>>>>>>>>>>>>(...",
"...(>>>>>>>>>>>_=...",
"...#^>>>>>>>>>>;%...",
"...&->>>>>>>>>>~{...",
"...+=;>>>>>>>>;:<...",
"....,';>>>>>>;'[....",
".....,=~;>>;~:[.....",
"......!{}//}{<......",
"....................",
"....................",
"....................",
"....................",
"....................",
"....................",
"....................",
"...................."};
