/* XPM */
static char * close_prelight_xpm[] = {
"20 30 42 1",
" 	c None",
".	c #008080",
"+	c #467C7C",
"@	c #A76765",
"#	c #CD5550",
"$	c #DD4A43",
"%	c #CD5651",
"&	c #A86765",
"*	c #89716F",
"=	c #DE4B44",
"-	c #EE514A",
";	c #F95A52",
">	c #FE5E56",
",	c #EE5149",
"'	c #887170",
")	c #E44941",
"!	c #F95A53",
"~	c #FF5F57",
"{	c #DC4C45",
"]	c #497D7C",
"^	c #E6504D",
"/	c #C0373C",
"(	c #E7514D",
"_	c #EE5049",
":	c #A76865",
"<	c #CE5450",
"[	c #9F1F2C",
"}	c #9F1D2B",
"|	c #F85952",
"1	c #DC4A44",
"2	c #C0383C",
"3	c #C1373C",
"4	c #C1383C",
"5	c #FD5E55",
"6	c #DB4B45",
"7	c #9F1F2B",
"8	c #E8514D",
"9	c #A66766",
"0	c #DC4B46",
"a	c #867270",
"b	c #F85A52",
"c	c #CC5551",
"....................",
"....................",
"....................",
"....................",
"....................",
"....................",
"....................",
"....................",
"......+@#$$%&+......",
".....*=-;>>;,='.....",
"....*)!~~~~~~!)'....",
"...+=!~~~~~~~~!{]...",
"...@-~~~^//(~~~_:...",
"...<;~~^[}}[(~~|%...",
"...1>~~2}}}}3~~>1...",
"...1>~~/}}}}4~~56...",
"...#;~~([}}78~~|%...",
"...&,~~~(338~~~_9...",
"...+=!~~~~~~~~!0+...",
"....')!~~~~~~!)a....",
".....'0_|>>b_0a.....",
"......]:c11c9+......",
"....................",
"....................",
"....................",
"....................",
"....................",
"....................",
"....................",
"...................."};
