/* XPM */
static char * hide_active_xpm[] = {
"20 30 33 1",
" 	c None",
".	c #008080",
"+	c #46837B",
"@	c #A5925E",
"#	c #CB9B41",
"$	c #DB9F2B",
"%	c #CB9B42",
"&	c #A6925F",
"*	c #878B6C",
"=	c #DBA02E",
"-	c #EDAD28",
";	c #F7B72C",
">	c #FDBC2E",
",	c #878C6C",
"'	c #E2A325",
")	c #F8B72C",
"!	c #FEBD2E",
"~	c #DA9F2E",
"{	c #44837B",
"]	c #EDAC27",
"^	c #CC9C42",
"/	c #F7B72B",
"(	c #F7B62C",
"_	c #DB9F2D",
":	c #FCBC2E",
"<	c #FCBC2D",
"[	c #D99E2E",
"}	c #A4915F",
"|	c #DA9E2F",
"1	c #42837C",
"2	c #868B6D",
"3	c #DA9E2E",
"4	c #CA9A43",
"....................",
"....................",
"....................",
"....................",
"....................",
"....................",
"....................",
"....................",
"......+@#$$%&+......",
".....*=-;>>;-=,.....",
"....*')!!!!!!)',....",
"...+=)!!!!!!!!)~{...",
"...@-!!!!!!!!!!]&...",
"...^/!!!!!!!!!!(%...",
"..._:!!!!!!!!!!:~...",
"...~:!!!!!!!!!!<[...",
"...#/!!!!!!!!!!(%...",
"...&-!!!!!!!!!!]}...",
"...+=)!!!!!!!!)|1...",
"....,')!!!!!!)'2....",
".....,3](::;]|2.....",
"......{&4__4}1......",
"....................",
"....................",
"....................",
"....................",
"....................",
"....................",
"....................",
"...................."};
