/* XPM */
static char * close_active_xpm[] = {
"20 30 35 1",
" 	c None",
".	c #9400D3",
"+	c #9C10CB",
"@	c #C0329E",
"#	c #D53F70",
"$	c #DE444E",
"%	c #D54071",
"&	c #C1329E",
"*	c #B327B3",
"=	c #E04550",
"-	c #EE514A",
";	c #F95A52",
">	c #FE5E56",
",	c #EE5149",
"'	c #B227B4",
")	c #E44942",
"!	c #F95A53",
"~	c #FF5F57",
"{	c #DF4551",
"]	c #9D11CC",
"^	c #EE5049",
"/	c #C1329F",
"(	c #D63F70",
"_	c #F85952",
":	c #DE444F",
"<	c #DE4450",
"[	c #FD5E55",
"}	c #DE4451",
"|	c #C0309F",
"1	c #DE4453",
"2	c #9D0DCC",
"3	c #B128B4",
"4	c #DF4453",
"5	c #F85A52",
"6	c #D53F72",
"....................",
"....................",
"....................",
"....................",
"....................",
"....................",
"....................",
"....................",
"......+@#$$%&+......",
".....*=-;>>;,='.....",
"....*)!~~~~~~!)'....",
"...+=!~~~~~~~~!{]...",
"...@-~~~~~~~~~~^/...",
"...(;~~~~~~~~~~_%...",
"...:>~~~~~~~~~~><...",
"...<>~~~~~~~~~~[}...",
"...#;~~~~~~~~~~_%...",
"...&,~~~~~~~~~~^|...",
"...+=!~~~~~~~~!12...",
"....')!~~~~~~!)3....",
".....'4^_>>5^13.....",
"......]/6::6|2......",
"....................",
"....................",
"....................",
"....................",
"....................",
"....................",
"....................",
"...................."};
