/* XPM */
static char * close_prelight_xpm[] = {
"20 30 45 1",
" 	c None",
".	c #9400D3",
"+	c #9C10CB",
"@	c #C0329E",
"#	c #D53F70",
"$	c #DE444E",
"%	c #D54071",
"&	c #C1329E",
"*	c #B327B3",
"=	c #E04550",
"-	c #EE514A",
";	c #F95A52",
">	c #FE5E56",
",	c #EE5149",
"'	c #B227B4",
")	c #E44942",
"!	c #F95A53",
"~	c #FF5F57",
"{	c #DF4551",
"]	c #9D11CC",
"^	c #E6504D",
"/	c #C0373C",
"(	c #E7514D",
"_	c #EE5049",
":	c #C1329F",
"<	c #D63F70",
"[	c #9F1F2C",
"}	c #9F1D2B",
"|	c #F85952",
"1	c #DE444F",
"2	c #C0383C",
"3	c #C1373C",
"4	c #DE4450",
"5	c #C1383C",
"6	c #FD5E55",
"7	c #DE4451",
"8	c #9F1F2B",
"9	c #E8514D",
"0	c #C0309F",
"a	c #DE4453",
"b	c #9D0DCC",
"c	c #B128B4",
"d	c #DF4453",
"e	c #F85A52",
"f	c #D53F72",
"....................",
"....................",
"....................",
"....................",
"....................",
"....................",
"....................",
"....................",
"......+@#$$%&+......",
".....*=-;>>;,='.....",
"....*)!~~~~~~!)'....",
"...+=!~~~~~~~~!{]...",
"...@-~~~^//(~~~_:...",
"...<;~~^[}}[(~~|%...",
"...1>~~2}}}}3~~>4...",
"...4>~~/}}}}5~~67...",
"...#;~~([}}89~~|%...",
"...&,~~~(339~~~_0...",
"...+=!~~~~~~~~!ab...",
"....')!~~~~~~!)c....",
".....'d_|>>e_ac.....",
"......]:f11f0b......",
"....................",
"....................",
"....................",
"....................",
"....................",
"....................",
"....................",
"...................."};
