/* XPM */
static char * hide_active_xpm[] = {
"20 30 35 1",
" 	c None",
".	c #9400D3",
"+	c #9C31CB",
"@	c #BF769A",
"#	c #D39267",
"$	c #DC9D3B",
"%	c #D39168",
"&	c #C0769A",
"*	c #B15FB1",
"=	c #DD9D3F",
"-	c #EDAD28",
";	c #F7B72C",
">	c #FDBC2E",
",	c #B160B2",
"'	c #E2A327",
")	c #F8B72C",
"!	c #FEBD2E",
"~	c #DD9D40",
"{	c #9B2FCB",
"]	c #EDAC27",
"^	c #C0769B",
"/	c #D49367",
"(	c #F7B72B",
"_	c #F7B62C",
":	c #DD9D3D",
"<	c #FCBC2E",
"[	c #DC9C3F",
"}	c #FCBC2D",
"|	c #DC9C40",
"1	c #BF759C",
"2	c #DC9C42",
"3	c #9B30CC",
"4	c #B15EB2",
"5	c #DD9C40",
"6	c #D39169",
"....................",
"....................",
"....................",
"....................",
"....................",
"....................",
"....................",
"....................",
"......+@#$$%&+......",
".....*=-;>>;-=,.....",
"....*')!!!!!!)',....",
"...+=)!!!!!!!!)~{...",
"...@-!!!!!!!!!!]^...",
".../(!!!!!!!!!!_%...",
"...:<!!!!!!!!!!<[...",
"...[<!!!!!!!!!!}|...",
"...#(!!!!!!!!!!_%...",
"...&-!!!!!!!!!!]1...",
"...+=)!!!!!!!!)23...",
"....,')!!!!!!)'4....",
".....,5]_<<;]24.....",
"......{^6::613......",
"....................",
"....................",
"....................",
"....................",
"....................",
"....................",
"....................",
"...................."};
