/* XPM */
static char * close_prelight_xpm[] = {
"20 30 84 1",
" 	c None",
".	c #D53D3D",
"+	c #D43C3C",
"@	c #D33B3B",
"#	c #D23B3B",
"$	c #D13A3A",
"%	c #D13939",
"&	c #D03838",
"*	c #CF3838",
"=	c #CE3737",
"-	c #CF3837",
";	c #D83F3C",
">	c #DE433E",
",	c #E0453F",
"'	c #DE443E",
")	c #D93F3B",
"!	c #CD3636",
"~	c #D43B39",
"{	c #E2463F",
"]	c #EE514A",
"^	c #F95A52",
"/	c #FE5E56",
"(	c #EE5149",
"_	c #D43C3A",
":	c #E44941",
"<	c #F95A53",
"[	c #FF5F57",
"}	c #CC3535",
"|	c #CD3735",
"1	c #E1463E",
"2	c #CE3736",
"3	c #CB3434",
"4	c #D63E3B",
"5	c #E6504D",
"6	c #C0373C",
"7	c #E7514D",
"8	c #EE5049",
"9	c #D73F3A",
"0	c #CB3333",
"a	c #DE433D",
"b	c #9F1F2C",
"c	c #9F1D2B",
"d	c #F85952",
"e	c #DD443D",
"f	c #CA3232",
"g	c #E0453E",
"h	c #C0383C",
"i	c #C1373C",
"j	c #C1383C",
"k	c #FD5E55",
"l	c #C93131",
"m	c #DD433D",
"n	c #9F1F2B",
"o	c #E8514D",
"p	c #C83030",
"q	c #D63C38",
"r	c #D53C38",
"s	c #C82F2F",
"t	c #CA3130",
"u	c #E2463E",
"v	c #E1453F",
"w	c #CB3131",
"x	c #C72E2E",
"y	c #D03735",
"z	c #CF3834",
"A	c #C72D2D",
"B	c #D03734",
"C	c #E14540",
"D	c #F85A52",
"E	c #CF3733",
"F	c #C62C2C",
"G	c #C92F2E",
"H	c #D53C37",
"I	c #DC423C",
"J	c #D43A37",
"K	c #C92E2E",
"L	c #C52B2B",
"M	c #C42A2A",
"N	c #C42929",
"O	c #C32828",
"P	c #C22727",
"Q	c #C22626",
"R	c #C12525",
"S	c #C02424",
"....................",
"++++++++++++++++++++",
"@@@@@@@@@@@@@@@@@@@@",
"####################",
"$$$$$$$$$$$$$$$$$$$$",
"%%%%%%%%%%%%%%%%%%%%",
"&&&&&&&&&&&&&&&&&&&&",
"********************",
"======-;>,,')-======",
"!!!!!~{]^//^({_!!!!!",
"!!!!~:<[[[[[[<:_!!!!",
"}}}|{<[[[[[[[[<12}}}",
"3334][[[5667[[[89333",
"000a^[[5bccb7[[de000",
"fffg/[[hcccci[[/gfff",
"fffg/[[6ccccj[[kgfff",
"lllm^[[7bccno[[dmlll",
"pppq([[[7iio[[[8rppp",
"ssstu<[[[[[[[[<vwsss",
"xxxxy:<[[[[[[<:zxxxx",
"AAAAABC8d//D8vEAAAAA",
"FFFFFFGHIggIJKFFFFFF",
"LLLLLLLLLLLLLLLLLLLL",
"MMMMMMMMMMMMMMMMMMMM",
"NNNNNNNNNNNNNNNNNNNN",
"OOOOOOOOOOOOOOOOOOOO",
"PPPPPPPPPPPPPPPPPPPP",
"QQQQQQQQQQQQQQQQQQQQ",
"RRRRRRRRRRRRRRRRRRRR",
"SSSSSSSSSSSSSSSSSSSS"};
