/* XPM */
static char * close_active_xpm[] = {
"20 30 33 1",
" 	c None",
".	c #708090",
"+	c #7E7C8B",
"@	c #B56770",
"#	c #D25556",
"$	c #DE4A45",
"%	c #D15656",
"&	c #B6676F",
"*	c #A2717C",
"=	c #DF4B46",
"-	c #EE514A",
";	c #F95A52",
">	c #FE5E56",
",	c #EE5149",
"'	c #A1717D",
")	c #E44942",
"!	c #F95A53",
"~	c #FF5F57",
"{	c #DE4C47",
"]	c #807D8B",
"^	c #EE5049",
"/	c #B66870",
"(	c #D35456",
"_	c #F85952",
":	c #DD4A46",
"<	c #FD5E55",
"[	c #DD4B47",
"}	c #DD4B48",
"|	c #7F7C8C",
"1	c #A0727D",
"2	c #DE4B48",
"3	c #F85A52",
"4	c #D15557",
"....................",
"....................",
"....................",
"....................",
"....................",
"....................",
"....................",
"....................",
"......+@#$$%&+......",
".....*=-;>>;,='.....",
"....*)!~~~~~~!)'....",
"...+=!~~~~~~~~!{]...",
"...@-~~~~~~~~~~^/...",
"...(;~~~~~~~~~~_%...",
"...:>~~~~~~~~~~>:...",
"...:>~~~~~~~~~~<[...",
"...#;~~~~~~~~~~_%...",
"...&,~~~~~~~~~~^@...",
"...+=!~~~~~~~~!}|...",
"....')!~~~~~~!)1....",
".....'2^_>>3^}1.....",
"......]/4::4@|......",
"....................",
"....................",
"....................",
"....................",
"....................",
"....................",
"....................",
"...................."};
