/* XPM */
static char * maximize_pressed_xpm[] = {
"20 30 49 1",
" 	c None",
".	c #708090",
"+	c #688985",
"@	c #539A67",
"#	c #40A54A",
"$	c #35A935",
"%	c #539B67",
"&	c #6F828E",
"*	c #529C65",
"=	c #30AD30",
"-	c #2CBA36",
";	c #29C33C",
">	c #28C73F",
",	c #30AD31",
"'	c #529B66",
")	c #6F818F",
"!	c #47A155",
"~	c #2DB532",
"{	c #28C83F",
"]	c #28C940",
"^	c #2DB533",
"/	c #48A155",
"(	c #519B64",
"_	c #539B66",
":	c #29C73E",
"<	c #30AE30",
"[	c #22B334",
"}	c #16931F",
"|	c #22B434",
"1	c #2CBA37",
"2	c #549A68",
"3	c #40A549",
"4	c #2AC43C",
"5	c #0C7409",
"6	c #0B7407",
"7	c #41A44A",
"8	c #35A936",
"9	c #16921E",
"0	c #36A937",
"a	c #17931F",
"b	c #36A938",
"c	c #0C7509",
"d	c #22B534",
"e	c #29C73F",
"f	c #30AE31",
"g	c #698886",
"h	c #2EB533",
"i	c #48A056",
"j	c #29C43C",
"....................",
"....................",
"....................",
"....................",
"....................",
"....................",
"....................",
"......+@#$$#%+......",
"....&*=-;>>;-,')....",
"...&!~{]]]]]]{^/)...",
"...(~]]]]]]]]]]^_...",
"..+={]]]]]]]]]]:<+..",
"..@-]]]][}}|]]]]12..",
"..34]]][5665|]]];7..",
"..8{]]]96666}]]]{0..",
"..0{]]]}6666a]]]:b..",
"..3;]]]|566cd]]];7..",
"..%-]]]]|}}d]]]]-2..",
"..+,{]]]]]]]]]]efg..",
"...'^]]]]]]]]]]h@...",
"...)!^:]]]]]]ehi)...",
"....)_<1j{{j-f@)....",
"......+278872g......",
"....................",
"....................",
"....................",
"....................",
"....................",
"....................",
"...................."};
