/* XPM */
static char * close_prelight_xpm[] = {
"20 30 41 1",
" 	c None",
".	c #FF4500",
"+	c #FC450C",
"@	c #F0462D",
"#	c #E74639",
"$	c #E2463E",
"%	c #E74738",
"&	c #F1462C",
"*	c #F64523",
"=	c #E5473D",
"-	c #EE514A",
";	c #F95A52",
">	c #FE5E56",
",	c #EE5149",
"'	c #E44941",
")	c #F95A53",
"!	c #FF5F57",
"~	c #E4473D",
"{	c #FD450C",
"]	c #E6504D",
"^	c #C0373C",
"/	c #E7514D",
"(	c #EE5049",
"_	c #E84639",
":	c #9F1F2C",
"<	c #9F1D2B",
"[	c #F85952",
"}	c #E3463D",
"|	c #C0383C",
"1	c #C1373C",
"2	c #C1383C",
"3	c #FD5E55",
"4	c #9F1F2B",
"5	c #E8514D",
"6	c #F0452C",
"7	c #E4463E",
"8	c #FD450D",
"9	c #F64621",
"0	c #E4463F",
"a	c #F85A52",
"b	c #E74638",
"....................",
"....................",
"....................",
"....................",
"....................",
"....................",
"....................",
"....................",
"......+@#$$%&+......",
".....*=-;>>;,=*.....",
"....*')!!!!!!)'*....",
"...+=)!!!!!!!!)~{...",
"...@-!!!]^^/!!!(&...",
"..._;!!]:<<:/!![%...",
"...}>!!|<<<<1!!>}...",
"...}>!!^<<<<2!!3}...",
"...#;!!/:<<45!![%...",
"...&,!!!/115!!!(6...",
"...+=)!!!!!!!!)78...",
"....*')!!!!!!)'9....",
".....*0([>>a(79.....",
"......{&b}}b68......",
"....................",
"....................",
"....................",
"....................",
"....................",
"....................",
"....................",
"...................."};
