/* XPM */
static char * hide_pressed_xpm[] = {
"20 30 49 1",
" 	c None",
".	c #FF4500",
"+	c #F95D09",
"@	c #EE8319",
"#	c #E5951F",
"$	c #E19D21",
"%	c #EE8219",
"&	c #F95E0A",
"*	c #FE4902",
"=	c #ED841A",
"-	c #E2A224",
";	c #EFAF29",
">	c #F8B72C",
",	c #FDBC2E",
"'	c #F8B82C",
")	c #EEAF29",
"!	c #E2A124",
"~	c #ED8418",
"{	c #FE4A02",
"]	c #E8901D",
"^	c #EAAA26",
"/	c #FCBB2E",
"(	c #FEBD2E",
"_	c #EAA926",
":	c #ED8419",
"<	c #FCBC2D",
"[	c #FA5D0A",
"}	c #E5A729",
"|	c #C2841F",
"1	c #E7A829",
"2	c #EEAE28",
"3	c #EE8218",
"4	c #E5961F",
"5	c #A16215",
"6	c #A16115",
"7	c #E6951F",
"8	c #E29D22",
"9	c #FCBC2E",
"0	c #C1841F",
"a	c #E19D22",
"b	c #A16316",
"c	c #EEAF28",
"d	c #EE8117",
"e	c #FCBB2D",
"f	c #FA5C0A",
"g	c #E9AA27",
"h	c #E78F1D",
"i	c #E98F1D",
"j	c #FE4802",
"....................",
"....................",
"....................",
"....................",
"....................",
"....................",
"....................",
"......+@#$$#%&......",
"....*=-;>,,')!~{....",
"...*]^/((((((/_]{...",
"...:^((((((((((_@...",
"..+-/((((((((((<-[..",
"..@;((((}||1((((23..",
"..4>(((}56651((('7..",
"..89(((06666|(((/a..",
"..a/(((|6666|(((<a..",
"..4>(((1566b1((('7..",
"..%)((((1||1((((cd..",
"..&!/((((((((((e-f..",
"...~_((((((((((g@...",
"...{h_<((((((egij...",
"....{@-2>99>c-@j....",
"......[37887df......",
"....................",
"....................",
"....................",
"....................",
"....................",
"....................",
"...................."};
