/* XPM */
static char * close_pressed_xpm[] = {
"20 30 99 2",
"  	c None",
". 	c #758494",
"+ 	c #748393",
"@ 	c #738293",
"# 	c #738292",
"$ 	c #728292",
"% 	c #728191",
"& 	c #718191",
"* 	c #8E7987",
"= 	c #BB656C",
"- 	c #D35454",
"; 	c #DE4A45",
"> 	c #BB656D",
", 	c #8D7987",
"' 	c #718091",
") 	c #767F90",
"! 	c #BD636B",
"~ 	c #E34944",
"{ 	c #F1534B",
"] 	c #F95A53",
"^ 	c #FE5E56",
"/ 	c #F95A52",
"( 	c #F0534C",
"_ 	c #BD646C",
": 	c #757F90",
"< 	c #708090",
"[ 	c #757F8F",
"} 	c #CC595C",
"| 	c #EB4F47",
"1 	c #FD5E56",
"2 	c #FF5F57",
"3 	c #EB4E47",
"4 	c #CB5A5D",
"5 	c #747F8F",
"6 	c #70808F",
"7 	c #BE6269",
"8 	c #BD636A",
"9 	c #6F7F8F",
"0 	c #8D7785",
"a 	c #FD5E55",
"b 	c #E34943",
"c 	c #8B7886",
"d 	c #6E7E8E",
"e 	c #BB636A",
"f 	c #E6504D",
"g 	c #C0373C",
"h 	c #E7514D",
"i 	c #F0524B",
"j 	c #B9646B",
"k 	c #6D7E8D",
"l 	c #D35252",
"m 	c #9F1F2C",
"n 	c #9F1D2B",
"o 	c #D35353",
"p 	c #6C7D8C",
"q 	c #DD4A45",
"r 	c #C0383C",
"s 	c #C1373C",
"t 	c #DD4A46",
"u 	c #6C7C8B",
"v 	c #C1383C",
"w 	c #6B7B8A",
"x 	c #D35152",
"y 	c #9F1F2B",
"z 	c #E8514D",
"A 	c #6A7B89",
"B 	c #B96268",
"C 	c #F0534B",
"D 	c #B86268",
"E 	c #697A88",
"F 	c #88737F",
"G 	c #FD5D56",
"H 	c #E34942",
"I 	c #87747F",
"J 	c #687987",
"K 	c #BB6065",
"L 	c #B96066",
"M 	c #6C7886",
"N 	c #CA5859",
"O 	c #CA5759",
"P 	c #6B7886",
"Q 	c #677887",
"R 	c #6B7786",
"S 	c #BB5F65",
"T 	c #6A7786",
"U 	c #667887",
"V 	c #86727E",
"W 	c #B76067",
"X 	c #D25151",
"Y 	c #DD4945",
"Z 	c #B76167",
"` 	c #85727E",
" .	c #667787",
"..	c #657786",
"+.	c #647686",
"@.	c #637686",
"#.	c #637586",
"$.	c #627586",
"%.	c #617486",
". . . . . . . . . . . . . . . . . . . . ",
"+ + + + + + + + + + + + + + + + + + + + ",
"+ + + + + + + + + + + + + + + + + + + + ",
"@ @ @ @ @ @ @ @ @ @ @ @ @ @ @ @ @ @ @ @ ",
"# # # # # # # # # # # # # # # # # # # # ",
"$ $ $ $ $ $ $ $ $ $ $ $ $ $ $ $ $ $ $ $ ",
"% % % % % % % % % % % % % % % % % % % % ",
"& & & & & & * = - ; ; - > , & & & & & & ",
"' ' ' ' ) ! ~ { ] ^ ^ / ( ~ _ : ' ' ' ' ",
"< < < [ } | 1 2 2 2 2 2 2 1 3 4 5 < < < ",
"6 6 6 7 | 2 2 2 2 2 2 2 2 2 2 3 8 6 6 6 ",
"9 9 0 ~ 1 2 2 2 2 2 2 2 2 2 2 a b c 9 9 ",
"d d e { 2 2 2 2 f g g h 2 2 2 2 i j d d ",
"k k l ] 2 2 2 f m n n m h 2 2 2 / o k k ",
"p p q ^ 2 2 2 r n n n n s 2 2 2 1 t p p ",
"u u q 1 2 2 2 g n n n n v 2 2 2 a t u u ",
"w w x ] 2 2 2 h m n n y z 2 2 2 / l w w ",
"A A B ( 2 2 2 2 h s s z 2 2 2 2 C D A A ",
"E E F b 1 2 2 2 2 2 2 2 2 2 2 G H I E E ",
"J J J K 3 2 2 2 2 2 2 2 2 2 2 3 L J J J ",
"J J J M N 3 a 2 2 2 2 2 2 G 3 O P J J J ",
"Q Q Q Q R S H i / ^ ^ / C H L T Q Q Q Q ",
"U U U U U U V W X Y Y X Z ` U U U U U U ",
" . . . . . . . . . . . . . . . . . . . .",
"........................................",
"+.+.+.+.+.+.+.+.+.+.+.+.+.+.+.+.+.+.+.+.",
"@.@.@.@.@.@.@.@.@.@.@.@.@.@.@.@.@.@.@.@.",
"#.#.#.#.#.#.#.#.#.#.#.#.#.#.#.#.#.#.#.#.",
"$.$.$.$.$.$.$.$.$.$.$.$.$.$.$.$.$.$.$.$.",
"%.%.%.%.%.%.%.%.%.%.%.%.%.%.%.%.%.%.%.%."};
