/* XPM */
static char * close_active_xpm[] = {
"20 30 77 1",
" 	c None",
".	c #758494",
"+	c #748393",
"@	c #738293",
"#	c #738292",
"$	c #728292",
"%	c #728191",
"&	c #718191",
"*	c #718091",
"=	c #7F7C8C",
"-	c #B66770",
";	c #D25556",
">	c #DE4A45",
",	c #D15657",
"'	c #B76770",
")	c #708090",
"!	c #A2717C",
"~	c #DF4B46",
"{	c #EE514A",
"]	c #F95A52",
"^	c #FE5E56",
"/	c #EE5149",
"(	c #A1717D",
"_	c #70808F",
":	c #A2717B",
"<	c #E44942",
"[	c #F95A53",
"}	c #FF5F57",
"|	c #A1717C",
"1	c #6F7F8F",
"2	c #7E7B8A",
"3	c #DE4B46",
"4	c #7F7C8A",
"5	c #6E7E8E",
"6	c #B5666E",
"7	c #EE5049",
"8	c #B5676F",
"9	c #6D7E8D",
"0	c #D35454",
"a	c #F85952",
"b	c #D15555",
"c	c #6C7D8C",
"d	c #DD4A45",
"e	c #DD4A46",
"f	c #6C7C8B",
"g	c #FD5E55",
"h	c #6B7B8A",
"i	c #D15354",
"j	c #D15454",
"k	c #6A7B89",
"l	c #B5646B",
"m	c #B3646C",
"n	c #697A88",
"o	c #797783",
"p	c #DF4B45",
"q	c #DD4A47",
"r	c #797784",
"s	c #687987",
"t	c #9E6B75",
"u	c #E44941",
"v	c #9C6C76",
"w	c #F85A52",
"x	c #677887",
"y	c #797583",
"z	c #B4636A",
"A	c #D05353",
"B	c #DD4945",
"C	c #B2626A",
"D	c #787583",
"E	c #667887",
"F	c #667787",
"G	c #657786",
"H	c #647686",
"I	c #637686",
"J	c #637586",
"K	c #627586",
"L	c #617486",
"....................",
"++++++++++++++++++++",
"++++++++++++++++++++",
"@@@@@@@@@@@@@@@@@@@@",
"####################",
"$$$$$$$$$$$$$$$$$$$$",
"%%%%%%%%%%%%%%%%%%%%",
"&&&&&&&&&&&&&&&&&&&&",
"******=-;>>,'=******",
")))))!~{]^^]/~()))))",
"____:<[}}}}}}[<|____",
"1112~[}}}}}}}}[34111",
"5556{}}}}}}}}}}78555",
"9990]}}}}}}}}}}ab999",
"cccd^}}}}}}}}}}^eccc",
"fffd^}}}}}}}}}}gefff",
"hhhi]}}}}}}}}}}ajhhh",
"kkkl/}}}}}}}}}}7mkkk",
"nnnop[}}}}}}}}[qrnnn",
"sssstu[}}}}}}[uvssss",
"ssssstq7a^^w7qvsssss",
"xxxxxxyzABBACDxxxxxx",
"EEEEEEEEEEEEEEEEEEEE",
"FFFFFFFFFFFFFFFFFFFF",
"GGGGGGGGGGGGGGGGGGGG",
"HHHHHHHHHHHHHHHHHHHH",
"IIIIIIIIIIIIIIIIIIII",
"JJJJJJJJJJJJJJJJJJJJ",
"KKKKKKKKKKKKKKKKKKKK",
"LLLLLLLLLLLLLLLLLLLL"};
