/* XPM */
static char * hide_prelight_xpm[] = {
"20 30 40 1",
" 	c None",
".	c #4B0082",
"+	c #63317D",
"@	c #AC7660",
"#	c #CD9242",
"$	c #DB9D2C",
"%	c #CD9143",
"&	c #AD7660",
"*	c #935F6E",
"=	c #DB9D2E",
"-	c #EDAD28",
";	c #F7B72C",
">	c #FDBC2E",
",	c #92606E",
"'	c #E2A325",
")	c #F8B72C",
"!	c #FEBD2E",
"~	c #DB9D2F",
"{	c #622F7D",
"]	c #E5A729",
"^	c #C2841F",
"/	c #E7A829",
"(	c #EDAC27",
"_	c #CE9343",
":	c #F7B72B",
"<	c #A16215",
"[	c #A16115",
"}	c #F7B62C",
"|	c #DC9D2D",
"1	c #FCBC2E",
"2	c #C1841F",
"3	c #DA9C2E",
"4	c #FCBC2D",
"5	c #DA9C2F",
"6	c #A16316",
"7	c #AB7561",
"8	c #DB9C2F",
"9	c #61307E",
"0	c #925E6E",
"a	c #CC9144",
"....................",
"....................",
"....................",
"....................",
"....................",
"....................",
"....................",
"....................",
"......+@#$$%&+......",
".....*=-;>>;-=,.....",
"....*')!!!!!!)',....",
"...+=)!!!!!!!!)~{...",
"...@-!!!]^^/!!!(@...",
"..._:!!]<[[</!!}%...",
"...|1!!2[[[[^!!13...",
"...31!!^[[[[^!!45...",
"...#:!!/<[[6/!!}%...",
"...&-!!!/^^/!!!(7...",
"...+=)!!!!!!!!)89...",
"....,')!!!!!!)'0....",
".....,8(}11;(80.....",
"......{@a||a79......",
"....................",
"....................",
"....................",
"....................",
"....................",
"....................",
"....................",
"...................."};
