/* XPM */
static char * maximize_inactive_xpm[] = {
"20 30 15 1",
" 	c None",
".	c #FAFAFA",
"+	c #F7F7F7",
"@	c #E6E6E6",
"#	c #DADADA",
"$	c #D3D3D3",
"%	c #EEEEEE",
"&	c #D4D4D4",
"*	c #D6D6D6",
"=	c #DCDCDC",
"-	c #D2D2D2",
";	c #D5D5D5",
">	c #E7E7E7",
",	c #D9D9D9",
"'	c #DBDBDB",
"....................",
"....................",
"....................",
"....................",
"....................",
"....................",
"....................",
"....................",
"......+@#$$#@+......",
".....%&*#==#*&%.....",
"....%-#======#-%....",
"...+&#========#;+...",
"...@*==========;>...",
"...,,==========##...",
"...$============$...",
"...$==========='&...",
"...#,==========##...",
"...@*==========;>...",
"...+&#========#&+...",
"....%-#======#-%....",
".....%&;#==#;&%.....",
"......+>#$$#>+......",
"....................",
"....................",
"....................",
"....................",
"....................",
"....................",
"....................",
"...................."};
